CTL-BHN7	51940973
CTL-BHN14	41078593
CTL-BHN15	54035921
CTL-BHN11	32509429
CTL-BHN16	15833388
CTL-BHN2	51049109
CTL-BHN3	48193629
CTL-BHN4	31043399
CTL-BHN1	27677375
CTL-BHN13	53933835
CTL-BHN5	51781533
CTL-BHN17	57675818
CTL-BHN19	43074363
CTL-BHN6	44679871
CTL-BHN8	26527630
CTL-BHN9	33267927
CTL-BHN12	49349660
CTL-BHN18	45433305
CTL-BHN10	41511944
CTL-BHN20	51698173
CASES-BHN21	38939610
CASES-BHN22	42994404
CASES-BHN23	41994402
CASES-BHN24	37793995
CASES-BHN25	21118208
CASES-BHN26	32202333
CASES-BHN38	41771052
CASES-BHN39	52222322
CASES-BHN40	37900917
BHN42	8603442
CASES-BHN32	43022289
CASES-BHN33	51568578
CASES-BHN34	52339536
CASES-BHN35	24208735
CASES-BHN36	27008398
CASES-BHN37	58782277
CASES-BHN41	36028210
CASES-BHN27	34139787
CASES-BHN28	42673577
CASES-BHN29	47565375
CASES-BHN30	46416328
CASES-BHN31	28521253
