Sample	total_reads	avg_input_read_length	uniquely_mapped	uniquely_mapped_percent	avg_mapped_read_length	num_splices	num_annotated_splices	num_GTAG_splices	num_GCAG_splices	num_ATAC_splices	num_noncanonical_splices	mismatch_rate	deletion_rate	deletion_length	insertion_rate	insertion_length	multimapped	multimapped_percent	multimapped_toomany	multimapped_toomany_percent	unmapped_mismatches_percent	unmapped_tooshort_percent	unmapped_other_percent	unmapped_mismatches	unmapped_tooshort	unmapped_other
BHN42	1789114.0	143.0	281889.0	15.76	111.43	27658.0	20253.0	22646.0	1659.0	0.0	3353.0	1.01	0.01	1.31	0.01	1.1	87702.0	4.9	2361.0	0.13	0.0	79.14	0.07	0	1415910	1252
CASES-BHN21	17042826.0	245.0	14262270.0	83.68	243.52	6129221.0	6089933.0	6010314.0	55223.0	3250.0	60434.0	0.52	0.02	1.75	0.01	1.55	581878.0	3.41	43150.0	0.25	0.0	12.36	0.29	0	2106113	49415
CASES-BHN22	13527237.0	240.0	9481251.0	70.09	232.36	3953976.0	3922444.0	3861488.0	34917.0	2080.0	55491.0	0.54	0.02	1.82	0.02	1.54	497600.0	3.68	48077.0	0.36	0.0	25.55	0.33	0	3455676	44633
CASES-BHN23	13338397.0	232.0	8224344.0	61.66	225.54	3238728.0	3206518.0	3155005.0	35474.0	2759.0	45490.0	0.6	0.02	1.87	0.02	1.53	1333667.0	10.0	52032.0	0.39	0.0	27.58	0.37	0	3678998	49356
CASES-BHN24	8132638.0	162.0	4733668.0	58.21	164.86	1739456.0	1719430.0	1675519.0	42929.0	855.0	20153.0	0.79	0.02	1.75	0.01	1.38	1025397.0	12.61	54820.0	0.67	0.0	28.05	0.46	0	2281341	37412
CASES-BHN25	4765360.0	249.0	3405102.0	71.46	244.73	1638246.0	1627670.0	1599207.0	18582.0	587.0	19870.0	0.6	0.02	1.65	0.01	1.51	295827.0	6.21	13361.0	0.28	0.0	21.85	0.21	0	1041064	10006
CASES-BHN26	8607088.0	243.0	5952296.0	69.16	235.66	2328452.0	2309285.0	2246573.0	20779.0	2855.0	58245.0	0.63	0.02	1.83	0.01	1.53	428061.0	4.97	20990.0	0.24	0.0	11.54	14.08	0	993530	1212211
CASES-BHN27	10163545.0	201.0	7215964.0	71.0	204.69	2760854.0	2733573.0	2692912.0	34284.0	1766.0	31892.0	0.55	0.02	1.73	0.01	1.39	1336229.0	13.15	63165.0	0.62	0.0	12.16	3.07	0	1236110	312077
CASES-BHN28	21721262.0	240.0	17290954.0	79.6	239.26	7782364.0	7735090.0	7598025.0	74283.0	5232.0	104824.0	0.52	0.02	1.68	0.01	1.39	1906710.0	8.78	60516.0	0.28	0.0	11.06	0.27	0	2404385	58697
CASES-BHN29	21259280.0	246.0	17748241.0	83.48	244.57	8252128.0	8199285.0	8078914.0	81990.0	6335.0	84889.0	0.5	0.02	1.76	0.01	1.46	1038177.0	4.88	50973.0	0.24	0.0	11.1	0.29	0	2360225	61664
CASES-BHN3	8543858.0	224.0	6536838.0	76.51	227.13	2793024.0	2764993.0	2731106.0	25344.0	1516.0	35058.0	0.56	0.02	1.93	0.02	1.52	681607.0	7.98	26064.0	0.31	0.0	14.76	0.45	0	1260907	38442
CASES-BHN30	20697807.0	244.0	17302406.0	83.6	243.63	7127488.0	7080946.0	6973376.0	73129.0	3976.0	77007.0	0.49	0.02	1.77	0.01	1.46	1290670.0	6.24	42140.0	0.2	0.0	7.02	2.94	0	1453754	608837
CASES-BHN31	8272827.0	242.0	5713663.0	69.07	242.05	2263296.0	2239248.0	2197548.0	27337.0	1348.0	37063.0	0.53	0.02	1.9	0.01	1.53	1083364.0	13.1	24703.0	0.3	0.0	17.25	0.29	0	1427105	23992
CASES-BHN32	16006713.0	238.0	11275982.0	70.45	232.76	6202400.0	6168401.0	6103357.0	44485.0	2531.0	52027.0	0.54	0.02	1.72	0.01	1.4	990180.0	6.19	46110.0	0.29	0.0	22.86	0.22	0	3659225	35216
CASES-BHN34	16478576.0	234.0	9355860.0	56.78	230.51	2953182.0	2906259.0	2850523.0	36665.0	1985.0	64009.0	0.69	0.02	2.0	0.02	1.57	2268063.0	13.76	58688.0	0.36	0.0	28.88	0.22	0	4759707	36258
CASES-BHN35	8778212.0	256.0	6507950.0	74.14	251.54	3218201.0	3198752.0	3160594.0	21964.0	2059.0	33584.0	0.6	0.02	1.64	0.01	1.39	617643.0	7.04	10537.0	0.12	0.0	8.88	9.83	0	779353	862729
CASES-BHN36	8953031.0	225.0	5810026.0	64.89	241.69	2460705.0	2436359.0	2403956.0	26538.0	3743.0	26468.0	0.53	0.02	1.58	0.01	1.33	880541.0	9.84	16201.0	0.18	0.0	24.97	0.12	0	2235520	10743
CASES-BHN37	20205109.0	250.0	17705072.0	87.63	248.85	8453009.0	8407653.0	8296821.0	77054.0	5088.0	74046.0	0.49	0.02	1.72	0.01	1.43	724782.0	3.59	27116.0	0.13	0.0	8.46	0.19	0	1709741	38398
CASES-BHN38	3744396.0	201.0	2865342.0	76.52	204.65	1073584.0	1058949.0	1038576.0	13469.0	603.0	20936.0	0.63	0.02	2.0	0.02	1.63	223569.0	5.97	22690.0	0.61	0.0	15.93	0.97	0	596475	36320
CASES-BHN39	19402833.0	250.0	13927568.0	71.78	248.5	6555635.0	6508086.0	6356402.0	72078.0	3537.0	123618.0	0.54	0.02	1.74	0.01	1.48	1462540.0	7.54	38184.0	0.2	0.0	12.22	8.27	0	2370370	1604171
CASES-BHN40	6415346.0	230.0	4599847.0	71.7	230.69	1995534.0	1979263.0	1947793.0	25895.0	1043.0	20803.0	0.54	0.02	1.76	0.01	1.48	471185.0	7.34	20605.0	0.32	0.0	20.35	0.28	0	1305743	17966
CASES-BHN41	15213406.0	234.0	12444436.0	81.8	233.57	5081925.0	5049652.0	4979618.0	44314.0	3468.0	54525.0	0.53	0.02	1.75	0.01	1.38	901970.0	5.93	46887.0	0.31	0.0	11.73	0.24	0	1783620	36493
CTL-BHN1	9818129.0	238.0	7034115.0	71.64	235.49	3093398.0	3070708.0	2994397.0	60482.0	1937.0	36582.0	0.63	0.02	1.68	0.02	1.46	638561.0	6.5	29580.0	0.3	0.0	21.28	0.27	0	2089363	26510
CTL-BHN10	9148199.0	249.0	5637477.0	61.62	245.73	2602666.0	2586132.0	2549611.0	26030.0	2139.0	24886.0	0.57	0.02	1.65	0.02	1.46	708738.0	7.75	28258.0	0.31	0.0	29.99	0.33	0	2743537	30189
CTL-BHN11	16668814.0	247.0	12594708.0	75.56	243.95	5607031.0	5576078.0	5488672.0	61058.0	4590.0	52711.0	0.59	0.02	1.69	0.02	1.46	1042543.0	6.25	37410.0	0.22	0.0	17.39	0.57	0	2899127	95026
CTL-BHN12	30532134.0	248.0	24299972.0	79.59	248.07	9093263.0	9033281.0	8861801.0	105872.0	8959.0	116631.0	0.59	0.02	1.63	0.02	1.47	2186405.0	7.16	61665.0	0.2	0.0	12.46	0.59	0	3803968	180124
CTL-BHN13	21422283.0	240.0	14813437.0	69.15	236.64	6731274.0	6686445.0	6577903.0	75868.0	6057.0	71446.0	0.61	0.02	1.77	0.02	1.49	1831440.0	8.55	75330.0	0.35	0.0	21.55	0.4	0	4616389	85687
CTL-BHN14	13147283.0	254.0	8231791.0	62.61	244.7	4069221.0	4046664.0	3968142.0	32279.0	2313.0	66487.0	0.52	0.02	1.87	0.01	1.53	802587.0	6.1	23110.0	0.18	0.0	30.97	0.13	0	4072699	17096
CTL-BHN15	18521394.0	237.0	12033360.0	64.97	231.8	5137715.0	5094853.0	5010694.0	57089.0	4016.0	65916.0	0.65	0.02	1.8	0.02	1.47	1764579.0	9.53	51503.0	0.28	0.0	24.9	0.32	0	4612673	59279
CTL-BHN16	5667149.0	215.0	3469703.0	61.22	233.8	1179689.0	1167073.0	1144232.0	12477.0	3157.0	19823.0	0.64	0.02	1.54	0.02	1.59	603440.0	10.65	16538.0	0.29	0.0	27.38	0.46	0	1551404	26064
CTL-BHN17	30549483.0	259.0	24852603.0	81.35	258.51	15428066.0	15343789.0	15098602.0	144984.0	19422.0	165058.0	0.54	0.02	1.62	0.01	1.42	1826759.0	5.98	44864.0	0.15	0.0	12.32	0.2	0	3764151	61106
CTL-BHN18	11856155.0	227.0	6395918.0	53.95	226.15	2513235.0	2490807.0	2407374.0	71470.0	1501.0	32890.0	0.64	0.02	1.68	0.02	1.41	1289324.0	10.87	55444.0	0.47	0.0	34.27	0.44	0	4063299	52170
CTL-BHN19	8495644.0	232.0	4661872.0	54.87	219.94	1595058.0	1576153.0	1542468.0	22987.0	2208.0	27395.0	0.62	0.02	1.84	0.02	1.51	625898.0	7.37	50781.0	0.6	0.0	36.69	0.47	0	3117162	39931
CTL-BHN2	13361540.0	249.0	10034497.0	75.1	245.02	4285107.0	4251816.0	4191614.0	42353.0	2463.0	48677.0	0.58	0.02	1.79	0.01	1.46	636459.0	4.76	27344.0	0.2	0.0	19.72	0.22	0	2633856	29384
CTL-BHN20	25973913.0	249.0	19070832.0	73.42	248.58	9086265.0	8993076.0	8880091.0	83117.0	7491.0	115566.0	0.53	0.02	1.63	0.01	1.43	2549458.0	9.82	79371.0	0.31	0.0	16.14	0.31	0	4193704	80548
CTL-BHN3	7254365.0	248.0	3592469.0	49.52	236.53	1310246.0	1297887.0	1278257.0	13286.0	706.0	17997.0	0.6	0.02	1.71	0.02	1.5	434521.0	5.99	23943.0	0.33	0.0	43.93	0.23	0	3186747	16685
CTL-BHN4	18275117.0	246.0	14429509.0	78.96	244.18	6691984.0	6654124.0	6549208.0	66323.0	5049.0	71404.0	0.58	0.02	1.67	0.02	1.46	1383595.0	7.57	42263.0	0.23	0.0	12.79	0.45	0	2337508	82242
CTL-BHN5	18543336.0	220.0	14646813.0	78.99	219.06	5754502.0	5707002.0	5480853.0	84813.0	2410.0	186426.0	0.56	0.02	1.84	0.01	1.52	932036.0	5.03	71813.0	0.39	0.0	14.99	0.61	0	2779563	113111
CTL-BHN6	12165244.0	243.0	9102647.0	74.83	242.17	4571460.0	4546960.0	4482075.0	42919.0	3841.0	42625.0	0.55	0.02	1.76	0.02	1.55	966988.0	7.95	28549.0	0.23	0.0	16.69	0.31	0	2029367	37693
CTL-BHN7	27953003.0	239.0	21477367.0	76.83	240.71	9603978.0	9541455.0	9386571.0	100948.0	7637.0	108822.0	0.54	0.02	1.62	0.01	1.4	2643447.0	9.46	74841.0	0.27	0.0	12.97	0.48	0	3623257	134091
CTL-BHN8	4877234.0	198.0	1605319.0	32.91	159.59	709439.0	698720.0	685262.0	14211.0	426.0	9540.0	0.97	0.02	1.98	0.03	1.45	610365.0	12.51	42072.0	0.86	0.0	53.36	0.34	0	2602893	16585
CTL-BHN9	16093461.0	253.0	12700489.0	78.92	253.74	7397849.0	7358695.0	7263730.0	67250.0	6364.0	60505.0	0.55	0.02	1.63	0.02	1.45	1462443.0	9.09	31362.0	0.19	0.0	11.64	0.17	0	1871829	27338
